%YAML 1.1
%TAG !u! tag:unity3d.com,2011:
--- !u!78 &1
TagManager:
  serializedVersion: 2
  tags:
  - Sheep
  - Background
  - Edge
  - Obstacle
  - Vehicle
  - Magnet
  - FarmLoad
  - FactoryUnload
  - Burning
  layers:
  - Default
  - TransparentFX
  - Ignore Raycast
  - 
  - Water
  - UI
  - 
  - 
  - Background
  - Sheep
  - Trees
  - PostProcess
  - Road
  - 
  - 
  - 
  - 
  - 
  - 
  - 
  - 
  - 
  - 
  - 
  - 
  - 
  - 
  - 
  - 
  - 
  - 
  - 
  m_SortingLayers:
  - name: Default
    uniqueID: 0
    locked: 0
  - name: UI
    uniqueID: 3297726575
    locked: 0
  - name: Cheats
    uniqueID: 3413887049
    locked: 0
  - name: Trees
    uniqueID: 3039561469
    locked: 0
