%YAML 1.1
%TAG !u! tag:unity3d.com,2011:
--- !u!114 &11400000
MonoBehaviour:
  m_ObjectHideFlags: 0
  m_CorrespondingSourceObject: {fileID: 0}
  m_PrefabInstance: {fileID: 0}
  m_PrefabAsset: {fileID: 0}
  m_GameObject: {fileID: 0}
  m_Enabled: 1
  m_EditorHideFlags: 0
  m_Script: {fileID: 11500000, guid: a8d342d38ae103540966b0e54b202c36, type: 3}
  m_Name: RainbowFoldersSettings
  m_EditorClassIdentifier: 
  Folders:
  - Type: 0
    Key: Audio
    IsRecursive: 0
    SmallIcon: {fileID: 2800000, guid: 4372cfb8a7d3b5b4d9b899147b193270, type: 3}
    LargeIcon: {fileID: 2800000, guid: 65e13c9890ffa26478506eda78683d5c, type: 3}
  - Type: 0
    Key: Editor
    IsRecursive: 0
    SmallIcon: {fileID: 2800000, guid: ec2951dbd8c22234c8fdf92529d860fd, type: 3}
    LargeIcon: {fileID: 2800000, guid: ad4412933c34d994a9a6daafb8202f4a, type: 3}
  - Type: 0
    Key: Data
    IsRecursive: 0
    SmallIcon: {fileID: 2800000, guid: 97efd597cd18c564aadb45280476b23a, type: 3}
    LargeIcon: {fileID: 2800000, guid: 650a564eae901434e86dcb456fcc046a, type: 3}
  - Type: 1
    Key: Assets/Editor Default Resources
    IsRecursive: 0
    SmallIcon: {fileID: 2800000, guid: 97efd597cd18c564aadb45280476b23a, type: 3}
    LargeIcon: {fileID: 2800000, guid: 650a564eae901434e86dcb456fcc046a, type: 3}
  - Type: 0
    Key: Extensions
    IsRecursive: 0
    SmallIcon: {fileID: 2800000, guid: 0a498e8f7fbcbef4db91d2d411e3f70f, type: 3}
    LargeIcon: {fileID: 2800000, guid: b88339035f924f94eab1e64bac79149f, type: 3}
  - Type: 0
    Key: Fonts
    IsRecursive: 0
    SmallIcon: {fileID: 2800000, guid: 163b4b589845fee47ac105cdfb911b77, type: 3}
    LargeIcon: {fileID: 2800000, guid: 87a78956e37a460439f1871712ce87fc, type: 3}
  - Type: 0
    Key: Icons
    IsRecursive: 0
    SmallIcon: {fileID: 2800000, guid: 27bb0c12d809b1e4fb2851723d50cde6, type: 3}
    LargeIcon: {fileID: 2800000, guid: f61940b61bdca1843bed2dbc93de9038, type: 3}
  - Type: 0
    Key: Materials
    IsRecursive: 0
    SmallIcon: {fileID: 2800000, guid: 0508340b76cfbdd43826ca620f578abd, type: 3}
    LargeIcon: {fileID: 2800000, guid: a4decc2460e61e44b9ccd3d2d248738b, type: 3}
  - Type: 0
    Key: Meshes
    IsRecursive: 0
    SmallIcon: {fileID: 2800000, guid: 268edea26d8cd504da659cc71a1d8549, type: 3}
    LargeIcon: {fileID: 2800000, guid: e69e4447e8078c441b3a955855f4f080, type: 3}
  - Type: 0
    Key: Plugins
    IsRecursive: 0
    SmallIcon: {fileID: 2800000, guid: 8f45cff1df9688244b1fa6e2da91e05f, type: 3}
    LargeIcon: {fileID: 2800000, guid: 15c3471930a7ff44aa9a30bc21a5ea06, type: 3}
  - Type: 0
    Key: Prefabs
    IsRecursive: 0
    SmallIcon: {fileID: 2800000, guid: 483d693b3f9d5704b89409016b40bc74, type: 3}
    LargeIcon: {fileID: 2800000, guid: fac7470563f79024ebc244b39080448d, type: 3}
  - Type: 0
    Key: Project
    IsRecursive: 0
    SmallIcon: {fileID: 2800000, guid: 36e0a02c0316e0b40bd7ffc8eb437a7f, type: 3}
    LargeIcon: {fileID: 2800000, guid: ce20e3678b7748244854c06fcd7d7d00, type: 3}
  - Type: 0
    Key: RainbowFolders
    IsRecursive: 0
    SmallIcon: {fileID: 2800000, guid: 8d50cf779e5b4f54a831bdefc32b044c, type: 3}
    LargeIcon: {fileID: 2800000, guid: 5c32cf9ad519d0c4aacb16805c45eab3, type: 3}
  - Type: 0
    Key: Resources
    IsRecursive: 0
    SmallIcon: {fileID: 2800000, guid: 97efd597cd18c564aadb45280476b23a, type: 3}
    LargeIcon: {fileID: 2800000, guid: 650a564eae901434e86dcb456fcc046a, type: 3}
  - Type: 0
    Key: Scenes
    IsRecursive: 0
    SmallIcon: {fileID: 2800000, guid: 40ff06f7c381dcf4391ca8342d04260c, type: 3}
    LargeIcon: {fileID: 2800000, guid: f9d86cd8e960f584a9aa5a8ee61c4115, type: 3}
  - Type: 0
    Key: Scripts
    IsRecursive: 0
    SmallIcon: {fileID: 2800000, guid: ed89c5b2588683046989a2a138f3b343, type: 3}
    LargeIcon: {fileID: 2800000, guid: 9fca1a811da70484494d9e10d46e0636, type: 3}
  - Type: 0
    Key: Shaders
    IsRecursive: 0
    SmallIcon: {fileID: 2800000, guid: 015a543b4163bfa498964b0db1004815, type: 3}
    LargeIcon: {fileID: 2800000, guid: fe053ca6ee802d5478277554f1b356d5, type: 3}
  - Type: 0
    Key: Terrains
    IsRecursive: 0
    SmallIcon: {fileID: 2800000, guid: c75be7d9cde129149bb04f51d452d85a, type: 3}
    LargeIcon: {fileID: 2800000, guid: 4716b9cfe49343c499142d04bb004e0b, type: 3}
  - Type: 0
    Key: Textures
    IsRecursive: 0
    SmallIcon: {fileID: 2800000, guid: 27bb0c12d809b1e4fb2851723d50cde6, type: 3}
    LargeIcon: {fileID: 2800000, guid: f61940b61bdca1843bed2dbc93de9038, type: 3}
  - Type: 0
    Key: Android
    IsRecursive: 0
    SmallIcon: {fileID: 2800000, guid: 6858fce162a9b4744baedb1357e0b690, type: 3}
    LargeIcon: {fileID: 2800000, guid: c1e5c2a549b1b8048a04987738bb9c52, type: 3}
  - Type: 0
    Key: iOS
    IsRecursive: 0
    SmallIcon: {fileID: 2800000, guid: 25e93be6802c63c408e62e4bdfa4e91f, type: 3}
    LargeIcon: {fileID: 2800000, guid: 6888916ad986e2944a731fd320e5f566, type: 3}
  - Type: 0
    Key: Windows
    IsRecursive: 0
    SmallIcon: {fileID: 2800000, guid: 277aff0709e51d2418b61f0c82cb277f, type: 3}
    LargeIcon: {fileID: 2800000, guid: c34025bbb220b844a8e633a414c63632, type: 3}
  - Type: 0
    Key: Mac
    IsRecursive: 0
    SmallIcon: {fileID: 2800000, guid: 54a92a89ce169714a9a00aebb271cdd6, type: 3}
    LargeIcon: {fileID: 2800000, guid: 80ea8e29a9c225e4291234d6ba25a868, type: 3}
  - Type: 0
    Key: WebGL
    IsRecursive: 0
    SmallIcon: {fileID: 2800000, guid: b8e8a328d6527a14783473666c1f8a08, type: 3}
    LargeIcon: {fileID: 2800000, guid: 010e6d817952d434197d318f48b2f16a, type: 3}
  - Type: 1
    Key: Assets/AddOns/Attributes
    IsRecursive: 0
    SmallIcon: {fileID: 2800000, guid: d7aa3931d4836f94ea17a3b67c2754b7, type: 3}
    LargeIcon: {fileID: 2800000, guid: 8033ba50d6a678f41bf129dd6a31ee12, type: 3}
  - Type: 1
    Key: Assets/AddOns/CustomLogger
    IsRecursive: 0
    SmallIcon: {fileID: 2800000, guid: 191188601401d7f4ca9105e13b350e00, type: 3}
    LargeIcon: {fileID: 2800000, guid: b5aa5103c69828e42a9ff77db820f2a6, type: 3}
  - Type: 1
    Key: Assets/AddOns/FpsCounter
    IsRecursive: 0
    SmallIcon: {fileID: 2800000, guid: 191188601401d7f4ca9105e13b350e00, type: 3}
    LargeIcon: {fileID: 2800000, guid: b5aa5103c69828e42a9ff77db820f2a6, type: 3}
  - Type: 1
    Key: Assets/AddOns/MobileJoyPad
    IsRecursive: 0
    SmallIcon: {fileID: 2800000, guid: 1395baad88220534f9a77e6e628f04c3, type: 3}
    LargeIcon: {fileID: 2800000, guid: 30971d38931ab5c4ea6ac4124bebfac4, type: 3}
  - Type: 1
    Key: Assets/AddOns/PhysicsEvents
    IsRecursive: 0
    SmallIcon: {fileID: 2800000, guid: a65c70fcbe9ac0b4fbcbac4a0b67e64f, type: 3}
    LargeIcon: {fileID: 2800000, guid: 3d8f946e891cc8f4e81b1a296f8fb6be, type: 3}
  - Type: 1
    Key: Assets/AddOns/SliceDuplicator
    IsRecursive: 0
    SmallIcon: {fileID: 2800000, guid: d7aa3931d4836f94ea17a3b67c2754b7, type: 3}
    LargeIcon: {fileID: 2800000, guid: 8033ba50d6a678f41bf129dd6a31ee12, type: 3}
  - Type: 1
    Key: Assets/AddOns/SpriteRendererExtended
    IsRecursive: 0
    SmallIcon: {fileID: 2800000, guid: f14480b09218f3047a15b5ded872de28, type: 3}
    LargeIcon: {fileID: 2800000, guid: 38dec0c9e1ada504d98f8a0f4959a215, type: 3}
  - Type: 1
    Key: Assets/AddOns/SpriteRendererExtended/Scripts
    IsRecursive: 0
    SmallIcon: {fileID: 2800000, guid: ed89c5b2588683046989a2a138f3b343, type: 3}
    LargeIcon: {fileID: 2800000, guid: 9fca1a811da70484494d9e10d46e0636, type: 3}
  - Type: 1
    Key: Assets/AddOns/SpriteRendererExtended/Sprites
    IsRecursive: 0
    SmallIcon: {fileID: 2800000, guid: 27bb0c12d809b1e4fb2851723d50cde6, type: 3}
    LargeIcon: {fileID: 2800000, guid: f61940b61bdca1843bed2dbc93de9038, type: 3}
  - Type: 1
    Key: Assets/AddOns/UnblendedSpriteAlpha/Sprites
    IsRecursive: 0
    SmallIcon: {fileID: 2800000, guid: 27bb0c12d809b1e4fb2851723d50cde6, type: 3}
    LargeIcon: {fileID: 2800000, guid: f61940b61bdca1843bed2dbc93de9038, type: 3}
  - Type: 1
    Key: Assets/AddOns/UnblendedSpriteAlpha
    IsRecursive: 0
    SmallIcon: {fileID: 2800000, guid: f14480b09218f3047a15b5ded872de28, type: 3}
    LargeIcon: {fileID: 2800000, guid: 38dec0c9e1ada504d98f8a0f4959a215, type: 3}
  - Type: 1
    Key: Assets/AddOns/DynamicSpriteOrder
    IsRecursive: 0
    SmallIcon: {fileID: 2800000, guid: f14480b09218f3047a15b5ded872de28, type: 3}
    LargeIcon: {fileID: 2800000, guid: 38dec0c9e1ada504d98f8a0f4959a215, type: 3}
  - Type: 1
    Key: Assets/AddOns
    IsRecursive: 0
    SmallIcon: {fileID: 2800000, guid: 0a498e8f7fbcbef4db91d2d411e3f70f, type: 3}
    LargeIcon: {fileID: 2800000, guid: b88339035f924f94eab1e64bac79149f, type: 3}
  - Type: 1
    Key: Assets/AddOns/PropertyAttributes
    IsRecursive: 0
    SmallIcon: {fileID: 2800000, guid: d7aa3931d4836f94ea17a3b67c2754b7, type: 3}
    LargeIcon: {fileID: 2800000, guid: 8033ba50d6a678f41bf129dd6a31ee12, type: 3}
  - Type: 1
    Key: Assets/AddOns/Properties
    IsRecursive: 0
    SmallIcon: {fileID: 2800000, guid: d7aa3931d4836f94ea17a3b67c2754b7, type: 3}
    LargeIcon: {fileID: 2800000, guid: 8033ba50d6a678f41bf129dd6a31ee12, type: 3}
  - Type: 1
    Key: Assets/AddOns/PropertyAttributes/Max
    IsRecursive: 0
    SmallIcon: {fileID: 2800000, guid: 6ecc649ba46fa2c448d60a663be30ffd, type: 3}
    LargeIcon: {fileID: 2800000, guid: 7ce51c638aeaa3840ab61c4a4af3885b, type: 3}
  - Type: 1
    Key: Assets/AddOns/PropertyAttributes/Min
    IsRecursive: 0
    SmallIcon: {fileID: 2800000, guid: 6ecc649ba46fa2c448d60a663be30ffd, type: 3}
    LargeIcon: {fileID: 2800000, guid: 7ce51c638aeaa3840ab61c4a4af3885b, type: 3}
  - Type: 1
    Key: Assets/AddOns/PropertyAttributes/ShowOnly
    IsRecursive: 0
    SmallIcon: {fileID: 2800000, guid: 996ce5f7498be3b47ad13c2557bef293, type: 3}
    LargeIcon: {fileID: 2800000, guid: 06303b4e77878d243b511b8f0c8bfc69, type: 3}
  - Type: 1
    Key: Assets/AddOns/MobileJoyPad/Sprites
    IsRecursive: 0
    SmallIcon: {fileID: 2800000, guid: 27bb0c12d809b1e4fb2851723d50cde6, type: 3}
    LargeIcon: {fileID: 2800000, guid: f61940b61bdca1843bed2dbc93de9038, type: 3}
  - Type: 1
    Key: Assets
    IsRecursive: 0
    SmallIcon: {fileID: 2800000, guid: 36e0a02c0316e0b40bd7ffc8eb437a7f, type: 3}
    LargeIcon: {fileID: 2800000, guid: ce20e3678b7748244854c06fcd7d7d00, type: 3}
  - Type: 1
    Key: Assets/SharedAssets/Objects
    IsRecursive: 0
    SmallIcon: {fileID: 2800000, guid: 483d693b3f9d5704b89409016b40bc74, type: 3}
    LargeIcon: {fileID: 2800000, guid: fac7470563f79024ebc244b39080448d, type: 3}
  - Type: 1
    Key: Assets/SharedAssets
    IsRecursive: 0
    SmallIcon: {fileID: 2800000, guid: 36e0a02c0316e0b40bd7ffc8eb437a7f, type: 3}
    LargeIcon: {fileID: 2800000, guid: ce20e3678b7748244854c06fcd7d7d00, type: 3}
  - Type: 1
    Key: Assets/SharedAssets/Animations
    IsRecursive: 0
    SmallIcon: {fileID: 2800000, guid: 0a498e8f7fbcbef4db91d2d411e3f70f, type: 3}
    LargeIcon: {fileID: 2800000, guid: b88339035f924f94eab1e64bac79149f, type: 3}
  - Type: 1
    Key: Assets/SharedAssets/Sprites
    IsRecursive: 0
    SmallIcon: {fileID: 2800000, guid: 27bb0c12d809b1e4fb2851723d50cde6, type: 3}
    LargeIcon: {fileID: 2800000, guid: f61940b61bdca1843bed2dbc93de9038, type: 3}
  - Type: 1
    Key: Assets/SharedAssets/Plugins/PropertyAttributes
    IsRecursive: 0
    SmallIcon: {fileID: 2800000, guid: a65c70fcbe9ac0b4fbcbac4a0b67e64f, type: 3}
    LargeIcon: {fileID: 2800000, guid: 3d8f946e891cc8f4e81b1a296f8fb6be, type: 3}
  - Type: 1
    Key: Assets/SharedAssets/Plugins/MobileJoyPad
    IsRecursive: 0
    SmallIcon: {fileID: 2800000, guid: bc1d6bab13fce1c448e2b0870277ce43, type: 3}
    LargeIcon: {fileID: 2800000, guid: a257b7f6126c9e74f86c966b806ffbf7, type: 3}
  - Type: 1
    Key: Assets/SharedAssets/Plugins/IsometricSpriteSorter
    IsRecursive: 0
    SmallIcon: {fileID: 2800000, guid: 191188601401d7f4ca9105e13b350e00, type: 3}
    LargeIcon: {fileID: 2800000, guid: b5aa5103c69828e42a9ff77db820f2a6, type: 3}
  - Type: 1
    Key: Assets/SharedAssets/Plugins/I2
    IsRecursive: 0
    SmallIcon: {fileID: 2800000, guid: 6afa87a5a70f8e54a82e85637cec0904, type: 3}
    LargeIcon: {fileID: 2800000, guid: b84c63ef648173140b8fa6c05aef2768, type: 3}
  - Type: 1
    Key: Assets/SharedAssets/Plugins/GraphVisualizer
    IsRecursive: 0
    SmallIcon: {fileID: 2800000, guid: f14480b09218f3047a15b5ded872de28, type: 3}
    LargeIcon: {fileID: 2800000, guid: 38dec0c9e1ada504d98f8a0f4959a215, type: 3}
  - Type: 1
    Key: Assets/SharedAssets/Plugins/CustomLogger
    IsRecursive: 0
    SmallIcon: {fileID: 2800000, guid: d7aa3931d4836f94ea17a3b67c2754b7, type: 3}
    LargeIcon: {fileID: 2800000, guid: 8033ba50d6a678f41bf129dd6a31ee12, type: 3}
  - Type: 1
    Key: Assets/SharedAssets/Plugins/AmazonGameLift
    IsRecursive: 0
    SmallIcon: {fileID: 2800000, guid: 1395baad88220534f9a77e6e628f04c3, type: 3}
    LargeIcon: {fileID: 2800000, guid: 30971d38931ab5c4ea6ac4124bebfac4, type: 3}
  - Type: 1
    Key: Assets/SharedAssets/Plugins/SpriteRendererExtended
    IsRecursive: 0
    SmallIcon: {fileID: 2800000, guid: 6ecc649ba46fa2c448d60a663be30ffd, type: 3}
    LargeIcon: {fileID: 2800000, guid: 7ce51c638aeaa3840ab61c4a4af3885b, type: 3}
  - Type: 1
    Key: Assets/SharedAssets/Plugins/PoolSystem
    IsRecursive: 0
    SmallIcon: {fileID: 2800000, guid: d7aa3931d4836f94ea17a3b67c2754b7, type: 3}
    LargeIcon: {fileID: 2800000, guid: 8033ba50d6a678f41bf129dd6a31ee12, type: 3}
  - Type: 1
    Key: Assets/SharedAssets/PhysicsMaterials
    IsRecursive: 0
    SmallIcon: {fileID: 2800000, guid: 0508340b76cfbdd43826ca620f578abd, type: 3}
    LargeIcon: {fileID: 2800000, guid: a4decc2460e61e44b9ccd3d2d248738b, type: 3}
  - Type: 1
    Key: Assets/Plugins/ios
    IsRecursive: 0
    SmallIcon: {fileID: 2800000, guid: 25e93be6802c63c408e62e4bdfa4e91f, type: 3}
    LargeIcon: {fileID: 2800000, guid: 6888916ad986e2944a731fd320e5f566, type: 3}
  - Type: 1
    Key: Assets/GameAssets/Objects
    IsRecursive: 0
    SmallIcon: {fileID: 2800000, guid: 36e0a02c0316e0b40bd7ffc8eb437a7f, type: 3}
    LargeIcon: {fileID: 2800000, guid: ce20e3678b7748244854c06fcd7d7d00, type: 3}
  - Type: 1
    Key: Assets/GameAssets/Sprites
    IsRecursive: 0
    SmallIcon: {fileID: 2800000, guid: 27bb0c12d809b1e4fb2851723d50cde6, type: 3}
    LargeIcon: {fileID: 2800000, guid: f61940b61bdca1843bed2dbc93de9038, type: 3}
  - Type: 1
    Key: Assets/GameAssets/Animations
    IsRecursive: 0
    SmallIcon: {fileID: 2800000, guid: 0a498e8f7fbcbef4db91d2d411e3f70f, type: 3}
    LargeIcon: {fileID: 2800000, guid: b88339035f924f94eab1e64bac79149f, type: 3}
  - Type: 1
    Key: Assets/GameAssets/PhysicsMaterials
    IsRecursive: 0
    SmallIcon: {fileID: 2800000, guid: 0508340b76cfbdd43826ca620f578abd, type: 3}
    LargeIcon: {fileID: 2800000, guid: a4decc2460e61e44b9ccd3d2d248738b, type: 3}
  - Type: 1
    Key: Assets/Game/Objects
    IsRecursive: 0
    SmallIcon: {fileID: 2800000, guid: 36e0a02c0316e0b40bd7ffc8eb437a7f, type: 3}
    LargeIcon: {fileID: 2800000, guid: ce20e3678b7748244854c06fcd7d7d00, type: 3}
  - Type: 1
    Key: Assets/GameAssets
    IsRecursive: 0
    SmallIcon: {fileID: 2800000, guid: 1395baad88220534f9a77e6e628f04c3, type: 3}
    LargeIcon: {fileID: 2800000, guid: 30971d38931ab5c4ea6ac4124bebfac4, type: 3}
  - Type: 1
    Key: Assets/GameAssets/Font
    IsRecursive: 0
    SmallIcon: {fileID: 2800000, guid: 0a498e8f7fbcbef4db91d2d411e3f70f, type: 3}
    LargeIcon: {fileID: 2800000, guid: b88339035f924f94eab1e64bac79149f, type: 3}
  - Type: 1
    Key: Assets/_GameAssets
    IsRecursive: 0
    SmallIcon: {fileID: 2800000, guid: 1395baad88220534f9a77e6e628f04c3, type: 3}
    LargeIcon: {fileID: 2800000, guid: 30971d38931ab5c4ea6ac4124bebfac4, type: 3}
  - Type: 1
    Key: Assets/_GameAssets/Sprites
    IsRecursive: 0
    SmallIcon: {fileID: 2800000, guid: 27bb0c12d809b1e4fb2851723d50cde6, type: 3}
    LargeIcon: {fileID: 2800000, guid: f61940b61bdca1843bed2dbc93de9038, type: 3}
  - Type: 1
    Key: Assets/_GameAssets/Objects
    IsRecursive: 0
    SmallIcon: {fileID: 2800000, guid: 36e0a02c0316e0b40bd7ffc8eb437a7f, type: 3}
    LargeIcon: {fileID: 2800000, guid: ce20e3678b7748244854c06fcd7d7d00, type: 3}
  - Type: 1
    Key: Assets/_GameAssets/Animations
    IsRecursive: 0
    SmallIcon: {fileID: 2800000, guid: 0a498e8f7fbcbef4db91d2d411e3f70f, type: 3}
    LargeIcon: {fileID: 2800000, guid: b88339035f924f94eab1e64bac79149f, type: 3}
  - Type: 0
    Key: Objects
    IsRecursive: 1
    SmallIcon: {fileID: 2800000, guid: 36e0a02c0316e0b40bd7ffc8eb437a7f, type: 3}
    LargeIcon: {fileID: 2800000, guid: ce20e3678b7748244854c06fcd7d7d00, type: 3}
